{
  "endpointAddress" : "https://holidayapi.com/v1/holidays",
  "method" : "GET",
  "contentType" : "text/xml",
  "requestBody" : "",
  "authType" : "NONE",
  "headers" : { },
  "queryParams" : {
    "month" : "10",
    "year" : "2016",
    "key" : "042d940c-a8cd-4261-ba0b-0cf26e555ca2",
    "country" : "US"
  },
  "sampleRestResponse" : {
    "responseBody" : "{\"status\":200,\"holidays\":[{\"name\":\"German-American Day\",\"date\":\"2016-10-06\",\"observed\":\"2016-10-06\",\"public\":false},{\"name\":\"Leif Erikson Day\",\"date\":\"2016-10-09\",\"observed\":\"2016-10-09\",\"public\":false},{\"name\":\"Columbus Day\",\"date\":\"2016-10-10\",\"observed\":\"2016-10-10\",\"public\":true},{\"name\":\"Halloween\",\"date\":\"2016-10-31\",\"observed\":\"2016-10-31\",\"public\":false}]}",
    "convertedResponse" : null,
    "statusCode" : 200,
    "responseHeaders" : {
      "Access-Control-Allow-Origin" : [ "*" ],
      "Vary" : [ "Accept-Encoding" ],
      "Transfer-Encoding" : [ "chunked" ],
      "Date" : [ "Sat, 01 Oct 2016 22:39:03 GMT" ],
      "Connection" : [ "keep-alive" ],
      "Content-Type" : [ "application/json; charset=utf-8" ]
    },
    "contentType" : "application/json",
    "cookies" : [ ]
  },
  "redirectEnabled" : true
}