{
  "tags" : [ {
    "description" : "Rest service swagger documentation",
    "name" : "RestServiceVirtualController"
  } ],
  "basePath" : "${rest.holidayapi.basepath}",
  "paths" : {
    "/holidays" : {
      "x-WM-BASE_PATH" : "/holidays",
      "x-WM-TAG" : "RestServiceVirtualController",
      "get" : {
        "tags" : [ "RestServiceVirtualController" ],
        "x-WM-METHOD_NAME" : "invoke",
        "x-WM-ACCESS_SPECIFIER" : "APP_ONLY",
        "parameters" : [ {
          "description" : "month",
          "name" : "month",
          "x-WM-EDITABLE" : false,
          "format" : "string",
          "type" : "string",
          "required" : false,
          "in" : "query"
        }, {
          "description" : "year",
          "name" : "year",
          "x-WM-EDITABLE" : false,
          "format" : "string",
          "type" : "string",
          "required" : false,
          "in" : "query"
        }, {
          "description" : "key",
          "name" : "key",
          "x-WM-EDITABLE" : false,
          "format" : "string",
          "type" : "string",
          "required" : false,
          "in" : "query"
        }, {
          "description" : "country",
          "name" : "country",
          "x-WM-EDITABLE" : false,
          "format" : "string",
          "type" : "string",
          "required" : false,
          "in" : "query"
        } ],
        "consumes" : [ "text/xml" ],
        "responses" : {
          "200" : {
            "schema" : {
              "$ref" : "#/definitions/RootResponse"
            },
            "description" : "Success"
          }
        },
        "operationId" : "holidayapi_RestServiceVirtualController-invoke"
      },
      "x-WM-RELATIVE_PATH" : "",
      "x-WM-COMPLETE_PATH" : "${rest.holidayapi.scheme}://${rest.holidayapi.host}${rest.holidayapi.basepath}/holidays"
    }
  },
  "host" : "${rest.holidayapi.host}",
  "schemes" : [ "${rest.holidayapi.scheme}" ],
  "swagger" : "2.0",
  "definitions" : {
    "RootResponse" : {
      "x-WM-FULLY_QUALIFIED_NAME" : "holidayapi.RootResponse",
      "x-WM-TAGS" : [ "RestServiceVirtualController" ],
      "properties" : {
        "status" : {
          "format" : "int32",
          "type" : "integer"
        },
        "holidays" : {
          "x-WM-IS_LIST" : true,
          "items" : {
            "$ref" : "#/definitions/holidaysEntryItem"
          },
          "uniqueItems" : false,
          "type" : "array"
        }
      }
    },
    "holidaysEntryItem" : {
      "x-WM-FULLY_QUALIFIED_NAME" : "holidayapi.holidaysEntryItem",
      "x-WM-TAGS" : [ "RestServiceVirtualController" ],
      "properties" : {
        "observed" : {
          "type" : "string"
        },
        "name" : {
          "type" : "string"
        },
        "public" : {
          "type" : "boolean"
        },
        "date" : {
          "type" : "string"
        }
      }
    }
  },
  "info" : {
    "x-WM-SERVICE_TYPE" : "RestService",
    "x-WM-API_ID" : "a164207e-e7d7-4131-ace6-845da0160bb8",
    "x-WM-USE_PROXY_FOR_WEB" : true,
    "x-WM-SERVICE_ID" : "holidayapi",
    "x-WM-USE_PROXY_FOR_MOBILE" : true,
    "version" : "2.0"
  }
}