{
  "ApilayerInvoke" : {
    "_id" : "wm-ApilayerInvoke-wm.ServiceVariable-1475363045742",
    "name" : "ApilayerInvoke",
    "owner" : "Page",
    "category" : "wm.ServiceVariable",
    "dataBinding" : [ {
      "target" : "format",
      "value" : "1",
      "type" : "java.lang.String"
    }, {
      "target" : "access_key",
      "value" : "88b6d9a7c4f78002fafa436a665e2d60",
      "type" : "java.lang.String"
    } ],
    "type" : "apilayer.RootResponse",
    "service" : "apilayer",
    "operation" : "invoke",
    "operationId" : "apilayer_RestServiceVirtualController-invoke",
    "operationType" : "get",
    "serviceType" : "RestService",
    "dataSet" : [ ],
    "isList" : false,
    "maxResults" : 20,
    "designMaxResults" : 10,
    "startUpdate" : true,
    "autoUpdate" : true,
    "inFlightBehavior" : "executeLast",
    "transformationRequired" : false,
    "saveInPhonegap" : false,
    "isDefault" : true,
    "controller" : "RestServiceVirtual"
  },
  "deleteFile" : {
    "_id" : "wm-deleteFile-wm.ServiceVariable-1475531430439",
    "name" : "deleteFile",
    "owner" : "Page",
    "category" : "wm.ServiceVariable",
    "dataBinding" : [ {
      "target" : "file",
      "value" : "bind:Widgets.grid4.selecteditem.name",
      "type" : "string"
    } ],
    "type" : "boolean",
    "service" : "FileService",
    "operation" : "deleteFile",
    "operationId" : "FileController_deleteFile",
    "operationType" : "delete",
    "serviceType" : "JavaService",
    "dataSet" : [ ],
    "isList" : false,
    "maxResults" : 20,
    "designMaxResults" : 10,
    "startUpdate" : false,
    "autoUpdate" : false,
    "inFlightBehavior" : "executeLast",
    "transformationRequired" : false,
    "saveInPhonegap" : false,
    "controller" : "File"
  },
  "DownloadFile" : {
    "_id" : "wm-DownloadFile-wm.ServiceVariable-1475530191725",
    "name" : "DownloadFile",
    "owner" : "Page",
    "category" : "wm.ServiceVariable",
    "dataBinding" : [ {
      "target" : "file",
      "value" : "bind:Widgets.grid4.selecteditem.name",
      "type" : "string"
    } ],
    "type" : "com.wavemaker.runtime.file.model.DownloadResponse",
    "service" : "FileService",
    "operation" : "getDownloadFile",
    "operationId" : "FileController_getDownloadFile",
    "operationType" : "get",
    "serviceType" : "JavaService",
    "dataSet" : [ ],
    "isList" : false,
    "maxResults" : 20,
    "designMaxResults" : 10,
    "startUpdate" : false,
    "autoUpdate" : false,
    "inFlightBehavior" : "executeLast",
    "transformationRequired" : false,
    "saveInPhonegap" : false,
    "controller" : "File"
  },
  "IpinfoInvoke" : {
    "_id" : "wm-IpinfoInvoke-wm.ServiceVariable-1475363384304",
    "name" : "IpinfoInvoke",
    "owner" : "Page",
    "category" : "wm.ServiceVariable",
    "dataBinding" : [ {
      "target" : "ip",
      "value" : "bind:Widgets.ipText.datavalue",
      "type" : "string"
    } ],
    "type" : "ipinfo.RootResponse",
    "service" : "ipinfo",
    "operation" : "invoke",
    "operationId" : "ipinfo_RestServiceVirtualController-invoke",
    "operationType" : "get",
    "serviceType" : "RestService",
    "dataSet" : [ ],
    "isList" : false,
    "maxResults" : 20,
    "designMaxResults" : 10,
    "startUpdate" : false,
    "autoUpdate" : true,
    "inFlightBehavior" : "executeLast",
    "transformationRequired" : false,
    "saveInPhonegap" : false,
    "isDefault" : true,
    "controller" : "RestServiceVirtual"
  },
  "ListFiles" : {
    "_id" : "wm-ListFiles-wm.ServiceVariable-1475530015436",
    "name" : "ListFiles",
    "owner" : "Page",
    "category" : "wm.ServiceVariable",
    "dataBinding" : [ ],
    "type" : "com.aayush.fileservice.FileService.WMFile",
    "service" : "FileService",
    "operation" : "listFiles",
    "operationId" : "FileController_listFiles",
    "operationType" : "get",
    "serviceType" : "JavaService",
    "dataSet" : [ ],
    "isList" : true,
    "maxResults" : 20,
    "designMaxResults" : 10,
    "startUpdate" : true,
    "autoUpdate" : true,
    "inFlightBehavior" : "executeLast",
    "transformationRequired" : false,
    "saveInPhonegap" : false,
    "controller" : "File"
  },
  "st_socketReply" : {
    "_id" : "wm-st_socketReply-wm.Variable-1475580658089",
    "name" : "st_socketReply",
    "owner" : "Page",
    "category" : "wm.Variable",
    "dataBinding" : [ ],
    "dataSet" : {
      "dataValue" : ""
    },
    "type" : "string",
    "isList" : false,
    "saveInPhonegap" : false
  },
  "svHolidayAPI" : {
    "_id" : "wm-svHolidayAPI-wm.ServiceVariable-1475361590270",
    "name" : "svHolidayAPI",
    "owner" : "Page",
    "category" : "wm.ServiceVariable",
    "dataBinding" : [ {
      "target" : "month",
      "value" : "bind:Widgets.Month.datavalue",
      "type" : "string"
    }, {
      "target" : "year",
      "value" : "bind:Widgets.year.datavalue",
      "type" : "string"
    }, {
      "target" : "key",
      "value" : "042d940c-a8cd-4261-ba0b-0cf26e555ca2",
      "type" : "string"
    }, {
      "target" : "country",
      "value" : "bind:Widgets.countryCode.datavalue",
      "type" : "string"
    } ],
    "type" : "holidayapi.RootResponse",
    "service" : "holidayapi",
    "operation" : "invoke",
    "operationId" : "holidayapi_RestServiceVirtualController-invoke",
    "operationType" : "get",
    "serviceType" : "RestService",
    "dataSet" : [ ],
    "isList" : false,
    "maxResults" : 20,
    "designMaxResults" : 10,
    "startUpdate" : false,
    "autoUpdate" : false,
    "inFlightBehavior" : "executeLast",
    "transformationRequired" : false,
    "saveInPhonegap" : false,
    "controller" : "RestServiceVirtual"
  }
}