{
  "tags" : [ {
    "description" : "Rest service swagger documentation",
    "name" : "RestServiceVirtualController"
  } ],
  "basePath" : "${rest.apilayer.basepath}",
  "paths" : {
    "/live" : {
      "x-WM-BASE_PATH" : "/live",
      "x-WM-TAG" : "RestServiceVirtualController",
      "get" : {
        "tags" : [ "RestServiceVirtualController" ],
        "x-WM-METHOD_NAME" : "invoke",
        "x-WM-ACCESS_SPECIFIER" : "APP_ONLY",
        "parameters" : [ {
          "description" : "format",
          "name" : "format",
          "x-WM-EDITABLE" : false,
          "format" : "string",
          "type" : "string",
          "required" : false,
          "in" : "query"
        }, {
          "description" : "access_key",
          "name" : "access_key",
          "x-WM-EDITABLE" : false,
          "format" : "string",
          "type" : "string",
          "required" : false,
          "in" : "query"
        } ],
        "consumes" : [ "text/xml" ],
        "responses" : {
          "200" : {
            "schema" : {
              "$ref" : "#/definitions/RootResponse"
            },
            "description" : "Success"
          }
        },
        "operationId" : "apilayer_RestServiceVirtualController-invoke"
      },
      "x-WM-RELATIVE_PATH" : "",
      "x-WM-COMPLETE_PATH" : "${rest.apilayer.scheme}://${rest.apilayer.host}${rest.apilayer.basepath}/live"
    }
  },
  "host" : "${rest.apilayer.host}",
  "schemes" : [ "${rest.apilayer.scheme}" ],
  "swagger" : "2.0",
  "definitions" : {
    "RootResponse" : {
      "x-WM-FULLY_QUALIFIED_NAME" : "apilayer.RootResponse",
      "x-WM-TAGS" : [ "RestServiceVirtualController" ],
      "properties" : {
        "timestamp" : {
          "format" : "int32",
          "type" : "integer"
        },
        "quotes" : {
          "$ref" : "#/definitions/quotes"
        },
        "source" : {
          "type" : "string"
        },
        "terms" : {
          "type" : "string"
        },
        "privacy" : {
          "type" : "string"
        },
        "success" : {
          "type" : "boolean"
        }
      }
    },
    "quotes" : {
      "x-WM-FULLY_QUALIFIED_NAME" : "apilayer.quotes",
      "x-WM-TAGS" : [ "RestServiceVirtualController" ],
      "properties" : {
        "USDXOF" : {
          "format" : "double",
          "type" : "number"
        },
        "USDTND" : {
          "format" : "double",
          "type" : "number"
        },
        "USDMOP" : {
          "format" : "double",
          "type" : "number"
        },
        "USDISK" : {
          "format" : "double",
          "type" : "number"
        },
        "USDKGS" : {
          "format" : "double",
          "type" : "number"
        },
        "USDSVC" : {
          "format" : "double",
          "type" : "number"
        },
        "USDBIF" : {
          "format" : "int32",
          "type" : "integer"
        },
        "USDLKR" : {
          "format" : "double",
          "type" : "number"
        },
        "USDWST" : {
          "format" : "double",
          "type" : "number"
        },
        "USDPEN" : {
          "format" : "double",
          "type" : "number"
        },
        "USDJOD" : {
          "format" : "double",
          "type" : "number"
        },
        "USDIRR" : {
          "format" : "double",
          "type" : "number"
        },
        "USDKRW" : {
          "format" : "double",
          "type" : "number"
        },
        "USDGIP" : {
          "format" : "double",
          "type" : "number"
        },
        "USDMGA" : {
          "format" : "double",
          "type" : "number"
        },
        "USDBYR" : {
          "format" : "int32",
          "type" : "integer"
        },
        "USDXPF" : {
          "format" : "double",
          "type" : "number"
        },
        "USDSEK" : {
          "format" : "double",
          "type" : "number"
        },
        "USDRWF" : {
          "format" : "double",
          "type" : "number"
        },
        "USDLVL" : {
          "format" : "double",
          "type" : "number"
        },
        "USDBHD" : {
          "format" : "double",
          "type" : "number"
        },
        "USDTWD" : {
          "format" : "double",
          "type" : "number"
        },
        "USDERN" : {
          "format" : "double",
          "type" : "number"
        },
        "USDBGN" : {
          "format" : "double",
          "type" : "number"
        },
        "USDTMT" : {
          "format" : "double",
          "type" : "number"
        },
        "USDKHR" : {
          "format" : "double",
          "type" : "number"
        },
        "USDZWL" : {
          "format" : "double",
          "type" : "number"
        },
        "USDXDR" : {
          "format" : "double",
          "type" : "number"
        },
        "USDHNL" : {
          "format" : "double",
          "type" : "number"
        },
        "USDKZT" : {
          "format" : "double",
          "type" : "number"
        },
        "USDOMR" : {
          "format" : "double",
          "type" : "number"
        },
        "USDCHF" : {
          "format" : "double",
          "type" : "number"
        },
        "USDDZD" : {
          "format" : "double",
          "type" : "number"
        },
        "USDILS" : {
          "format" : "double",
          "type" : "number"
        },
        "USDKES" : {
          "format" : "double",
          "type" : "number"
        },
        "USDMZN" : {
          "format" : "double",
          "type" : "number"
        },
        "USDSHP" : {
          "format" : "double",
          "type" : "number"
        },
        "USDCVE" : {
          "format" : "double",
          "type" : "number"
        },
        "USDMMK" : {
          "format" : "double",
          "type" : "number"
        },
        "USDTTD" : {
          "format" : "double",
          "type" : "number"
        },
        "USDEUR" : {
          "format" : "double",
          "type" : "number"
        },
        "USDFKP" : {
          "format" : "double",
          "type" : "number"
        },
        "USDDKK" : {
          "format" : "double",
          "type" : "number"
        },
        "USDJEP" : {
          "format" : "double",
          "type" : "number"
        },
        "USDBZD" : {
          "format" : "double",
          "type" : "number"
        },
        "USDSOS" : {
          "format" : "double",
          "type" : "number"
        },
        "USDBRL" : {
          "format" : "double",
          "type" : "number"
        },
        "USDANG" : {
          "format" : "double",
          "type" : "number"
        },
        "USDHTG" : {
          "format" : "double",
          "type" : "number"
        },
        "USDUGX" : {
          "format" : "double",
          "type" : "number"
        },
        "USDAFN" : {
          "format" : "double",
          "type" : "number"
        },
        "USDMYR" : {
          "format" : "double",
          "type" : "number"
        },
        "USDGTQ" : {
          "format" : "double",
          "type" : "number"
        },
        "USDPLN" : {
          "format" : "double",
          "type" : "number"
        },
        "USDJMD" : {
          "format" : "double",
          "type" : "number"
        },
        "USDRUB" : {
          "format" : "double",
          "type" : "number"
        },
        "USDPKR" : {
          "format" : "double",
          "type" : "number"
        },
        "USDLTL" : {
          "format" : "double",
          "type" : "number"
        },
        "USDETB" : {
          "format" : "double",
          "type" : "number"
        },
        "USDAOA" : {
          "format" : "double",
          "type" : "number"
        },
        "USDMNT" : {
          "format" : "double",
          "type" : "number"
        },
        "USDCOP" : {
          "format" : "int32",
          "type" : "integer"
        },
        "USDGMD" : {
          "format" : "double",
          "type" : "number"
        },
        "USDMRO" : {
          "format" : "double",
          "type" : "number"
        },
        "USDBAM" : {
          "format" : "double",
          "type" : "number"
        },
        "USDXCD" : {
          "format" : "double",
          "type" : "number"
        },
        "USDBSD" : {
          "format" : "int32",
          "type" : "integer"
        },
        "USDDJF" : {
          "format" : "double",
          "type" : "number"
        },
        "USDAWG" : {
          "format" : "double",
          "type" : "number"
        },
        "USDSGD" : {
          "format" : "double",
          "type" : "number"
        },
        "USDBBD" : {
          "format" : "int32",
          "type" : "integer"
        },
        "USDHUF" : {
          "format" : "double",
          "type" : "number"
        },
        "USDCNY" : {
          "format" : "double",
          "type" : "number"
        },
        "USDSBD" : {
          "format" : "double",
          "type" : "number"
        },
        "USDPAB" : {
          "format" : "int32",
          "type" : "integer"
        },
        "USDEEK" : {
          "format" : "double",
          "type" : "number"
        },
        "USDINR" : {
          "format" : "double",
          "type" : "number"
        },
        "USDSZL" : {
          "format" : "double",
          "type" : "number"
        },
        "USDMKD" : {
          "format" : "double",
          "type" : "number"
        },
        "USDYER" : {
          "format" : "double",
          "type" : "number"
        },
        "USDUYU" : {
          "format" : "double",
          "type" : "number"
        },
        "USDBTN" : {
          "format" : "double",
          "type" : "number"
        },
        "USDCLP" : {
          "format" : "double",
          "type" : "number"
        },
        "USDAED" : {
          "format" : "double",
          "type" : "number"
        },
        "USDLSL" : {
          "format" : "double",
          "type" : "number"
        },
        "USDFJD" : {
          "format" : "double",
          "type" : "number"
        },
        "USDXAU" : {
          "format" : "double",
          "type" : "number"
        },
        "USDBTC" : {
          "format" : "double",
          "type" : "number"
        },
        "USDGNF" : {
          "format" : "double",
          "type" : "number"
        },
        "USDBDT" : {
          "format" : "double",
          "type" : "number"
        },
        "USDSRD" : {
          "format" : "double",
          "type" : "number"
        },
        "USDGEL" : {
          "format" : "double",
          "type" : "number"
        },
        "USDIDR" : {
          "format" : "int32",
          "type" : "integer"
        },
        "USDNAD" : {
          "format" : "double",
          "type" : "number"
        },
        "USDHRK" : {
          "format" : "double",
          "type" : "number"
        },
        "USDQAR" : {
          "format" : "double",
          "type" : "number"
        },
        "USDALL" : {
          "format" : "double",
          "type" : "number"
        },
        "USDZAR" : {
          "format" : "double",
          "type" : "number"
        },
        "USDKWD" : {
          "format" : "double",
          "type" : "number"
        },
        "USDMXN" : {
          "format" : "double",
          "type" : "number"
        },
        "USDSYP" : {
          "format" : "double",
          "type" : "number"
        },
        "USDTJS" : {
          "format" : "double",
          "type" : "number"
        },
        "USDIMP" : {
          "format" : "double",
          "type" : "number"
        },
        "USDKMF" : {
          "format" : "double",
          "type" : "number"
        },
        "USDUAH" : {
          "format" : "double",
          "type" : "number"
        },
        "USDCDF" : {
          "format" : "double",
          "type" : "number"
        },
        "USDCUP" : {
          "format" : "double",
          "type" : "number"
        },
        "USDXAF" : {
          "format" : "double",
          "type" : "number"
        },
        "USDAZN" : {
          "format" : "double",
          "type" : "number"
        },
        "USDXAG" : {
          "format" : "double",
          "type" : "number"
        },
        "USDUZS" : {
          "format" : "double",
          "type" : "number"
        },
        "USDTZS" : {
          "format" : "double",
          "type" : "number"
        },
        "USDHKD" : {
          "format" : "double",
          "type" : "number"
        },
        "USDLRD" : {
          "format" : "double",
          "type" : "number"
        },
        "USDTRY" : {
          "format" : "double",
          "type" : "number"
        },
        "USDNIO" : {
          "format" : "double",
          "type" : "number"
        },
        "USDPYG" : {
          "format" : "double",
          "type" : "number"
        },
        "USDAMD" : {
          "format" : "double",
          "type" : "number"
        },
        "USDCUC" : {
          "format" : "int32",
          "type" : "integer"
        },
        "USDSAR" : {
          "format" : "double",
          "type" : "number"
        },
        "USDCLF" : {
          "format" : "double",
          "type" : "number"
        },
        "USDRSD" : {
          "format" : "double",
          "type" : "number"
        },
        "USDMDL" : {
          "format" : "double",
          "type" : "number"
        },
        "USDAUD" : {
          "format" : "double",
          "type" : "number"
        },
        "USDBMD" : {
          "format" : "int32",
          "type" : "integer"
        },
        "USDCZK" : {
          "format" : "double",
          "type" : "number"
        },
        "USDMUR" : {
          "format" : "double",
          "type" : "number"
        },
        "USDJPY" : {
          "format" : "double",
          "type" : "number"
        },
        "USDTHB" : {
          "format" : "double",
          "type" : "number"
        },
        "USDPHP" : {
          "format" : "double",
          "type" : "number"
        },
        "USDARS" : {
          "format" : "double",
          "type" : "number"
        },
        "USDRON" : {
          "format" : "double",
          "type" : "number"
        },
        "USDEGP" : {
          "format" : "double",
          "type" : "number"
        },
        "USDLAK" : {
          "format" : "double",
          "type" : "number"
        },
        "USDSTD" : {
          "format" : "int32",
          "type" : "integer"
        },
        "USDGGP" : {
          "format" : "double",
          "type" : "number"
        },
        "USDGYD" : {
          "format" : "double",
          "type" : "number"
        },
        "USDCRC" : {
          "format" : "double",
          "type" : "number"
        },
        "USDGBP" : {
          "format" : "double",
          "type" : "number"
        },
        "USDUSD" : {
          "format" : "int32",
          "type" : "integer"
        },
        "USDSLL" : {
          "format" : "double",
          "type" : "number"
        },
        "USDKPW" : {
          "format" : "double",
          "type" : "number"
        },
        "USDTOP" : {
          "format" : "double",
          "type" : "number"
        },
        "USDIQD" : {
          "format" : "double",
          "type" : "number"
        },
        "USDLYD" : {
          "format" : "double",
          "type" : "number"
        },
        "USDMAD" : {
          "format" : "double",
          "type" : "number"
        },
        "USDNZD" : {
          "format" : "double",
          "type" : "number"
        },
        "USDDOP" : {
          "format" : "double",
          "type" : "number"
        },
        "USDBND" : {
          "format" : "double",
          "type" : "number"
        },
        "USDKYD" : {
          "format" : "double",
          "type" : "number"
        },
        "USDSDG" : {
          "format" : "double",
          "type" : "number"
        },
        "USDNPR" : {
          "format" : "double",
          "type" : "number"
        },
        "USDVEF" : {
          "format" : "double",
          "type" : "number"
        },
        "USDMVR" : {
          "format" : "double",
          "type" : "number"
        },
        "USDBOB" : {
          "format" : "double",
          "type" : "number"
        },
        "USDLBP" : {
          "format" : "double",
          "type" : "number"
        },
        "USDBWP" : {
          "format" : "double",
          "type" : "number"
        },
        "USDNGN" : {
          "format" : "double",
          "type" : "number"
        },
        "USDZMW" : {
          "format" : "double",
          "type" : "number"
        },
        "USDGHS" : {
          "format" : "double",
          "type" : "number"
        },
        "USDSCR" : {
          "format" : "double",
          "type" : "number"
        },
        "USDPGK" : {
          "format" : "double",
          "type" : "number"
        },
        "USDNOK" : {
          "format" : "double",
          "type" : "number"
        },
        "USDVND" : {
          "format" : "int32",
          "type" : "integer"
        },
        "USDCAD" : {
          "format" : "double",
          "type" : "number"
        },
        "USDVUV" : {
          "format" : "double",
          "type" : "number"
        },
        "USDZMK" : {
          "format" : "double",
          "type" : "number"
        },
        "USDMWK" : {
          "format" : "double",
          "type" : "number"
        }
      }
    }
  },
  "info" : {
    "x-WM-SERVICE_TYPE" : "RestService",
    "x-WM-API_ID" : "d13e6e82-c4a8-45d3-b431-4e05479e771a",
    "x-WM-USE_PROXY_FOR_WEB" : true,
    "x-WM-SERVICE_ID" : "apilayer",
    "x-WM-USE_PROXY_FOR_MOBILE" : true,
    "version" : "2.0"
  }
}